----------------------------------------
srun job start: Sat Jan 11 23:20:57 CST 2020
Job ID: 4943558
Username: ylc677
Queue: b1030
Account: b1030
----------------------------------------
The following variables are not
guaranteed to be the same in
prologue and the job run script
----------------------------------------
PATH (in prologue) : /software/anaconda2/bin:/software/cuda/cuda_8.0.61/samples/bin/x86_64/linux/release:/software/cuda/cuda_8.0.61/bin/computeprof:/software/cuda/cuda_8.0.61/bin:/software/mpi/mpich-3.0.4-gcc-4.8.3-RH7/bin:/hpc/software/gcc/4.8.3/bin:/hpc/slurm/northwestern/usertools:/usr/lib64/qt-3.3/bin:/usr/local/bin:/usr/bin:/usr/local/sbin:/usr/sbin:/usr/lpp/mmfs/bin:/opt/ibutils/bin:/home/ylc677/hoomd/bin
WORKDIR is: /home/ylc677
----------------------------------------
  File "Cyl_Wall.py", line 45
    except:
         ^
SyntaxError: invalid syntax
